{
    "conv_block": [{
        "filter": 32,
        "kernel_size": 3,
        "pool_size": 2
    }, {
        "filter": 64,
        "kernel_size": 3,
        "pool_size": 2
    }, {
        "filter": 128,
        "kernel_size": 2,
        "pool_size": 1
    }],
    "mlp": [{
        "neuron": 320,
        "dropout": 0.5
    }, {
        "neuron": 720,
        "dropout": 0.5
    }, {
        "neuron": 320
    }]
}